{
    "UnitsRecipes" :[
        {
            "name": "Fearow",
            "Model": "",
            "BaseHP":65,
            "BaseMP":90,
            "BaseATK":90,
            "BaseDEF":65,
            "BaseMAT":61,
            "BaseMDF":61,
            "BaseSPD":100,
            "Attributes": ["NORMAL", "FLYING"],
            "Traits":[{ "name":"Keen Eye", "probability":0.5},{ "name": "Sniper", "probability":0.5}],
            "Abilities_Learned":[{ "level": 1, "ability":"Drill Run"}, { "level": 1, "ability":"Pluck"},{ "level": 1, "ability":"Peck"},
                { "level": 1, "ability":"Growl"},{ "level": 4, "ability":"Leer"},{ "level": 8, "ability":"Pursuit"},{ "level": 11, "ability":"Fury Attack"},
                { "level": 15, "ability":"Aerial Ace"},{ "level": 18, "ability":"Mirror Move"},{ "level": 41, "ability":"Drill Peck"},{ "level": 45, "ability":"Roost"}],
            "Abilities_Teachable":["Return", "Hyper Beam", "Protect", "Thief", "Aerial Ace", "U-Turn", "Fly"],
            "EggTypes":["Flying"],
            "EvolvesTo":[{"name":"SupaFearow", "trigger": "Happiness"}],
            "Tags": ["Wings", "Beak", "Claws"],
            "EVs" :[{"stat":"SPD", "amount":2}],
            "EXPGain" : "Medium Fast",
            "ExpPointYield" : 162
        },
        {
            "name": "Hypno",
            "Model": "",
            "BaseHP":85,
            "BaseMP":112,
            "BaseATK":73,
            "BaseDEF":70,
            "BaseMAT":73,
            "BaseMDF":115,
            "BaseSPD":67,
            "Attributes": ["PSYCHIC"],
            "Traits":[{ "name":"Insomnia", "probability":0.4}, { "name": "Inner Focus", "probability":0.2}, { "name": "Forewarn", "probability":0.4}],
            "Abilities_Learned":[{ "level": 1, "ability":"Future Sight"}, { "level": 1, "ability":"Nasty Plot"},{ "level": 1, "ability":"Nightmare"},
                { "level": 1, "ability":"Switcheroo"},{ "level": 1, "ability":"Pound"},{ "level": 1, "ability":"Hypnosis"},{ "level": 5, "ability":"Disable"},
                { "level": 9, "ability":"Confusion"},{ "level": 13, "ability":"Headbutt"},{ "level": 17, "ability":"Poison Gas"},{ "level": 21, "ability":"Meditate"},
                { "level": 25, "ability":"Psybeam"},{ "level": 29, "ability":"Wake-Up Slap"},{ "level": 33, "ability":"Psych Up"},
                { "level": 49, "ability":"Psychic"},{ "level": 53, "ability":"Nasty Plot"},{ "level": 57, "ability":"Psyshock"}],
            "Abilities_Teachable":["Return", "Hyper Beam", "Protect", "Thief", "Light Screen", "U-Turn", "Shadow Ball"],
            "EggTypes":["Human-Like"],
            "EvolvesTo":[],
            "Tags": ["Arms", "Hands", "Mystical"],
            "EVs" :[{"stat":"MDF", "amount":2}],
            "EXPGain" : "Medium",
            "ExpPointYield" : 169
        },
        {
            "name": "Rhydon",
            "Model": "",
            "BaseHP":105,
            "BaseMP":60,
            "BaseATK":130,
            "BaseDEF":120,
            "BaseMAT":45,
            "BaseMDF":45,
            "BaseSPD":40,
            "Attributes": ["GROUND", "ROCK"],
            "Traits":[{ "name":"Lightning Rod", "probability":0.45}, { "name": "Reckless", "probability":0.1}, { "name": "Rock Head", "probability":0.45}],
            "Abilities_Learned":[{ "level": -2, "ability":"Hammer Arm"}, { "level": 1, "ability":"Tackle"},{ "level": 1, "ability":"Tail Whip"},
                { "level": 1, "ability":"Smack Down"},{ "level": 1, "ability":"Bulldoze"},{ "level": 15, "ability":"Horn Attack"},{ "level": 20, "ability":"Scary Face"},
                { "level": 25, "ability":"Stomp"},{ "level": 30, "ability":"Rock Blast"},{ "level": 47, "ability":"Earthquake"},{ "level": 61, "ability":"Megahorn"}],
            "Abilities_Teachable":["Mega Punch", "Rock Slide", "Protect", "Thief", "Brick Break", "U-Turn", "Poison Jab"],
            "EggTypes":["Monster", "Field"],
            "EvolvesTo":[{"name":"Rhyperior", "trigger": "TradingWithItem", "Item":"Protector"}],
            "Tags": ["Arms", "Claws", "Horn", "Fangs", "Tail"],
            "EVs" :[{"stat":"ATK", "amount":2}],
            "EXPGain" : "Medium",
            "ExpPointYield" : 170
        }
    ]
}