%YAML 1.1
%TAG !u! tag:unity3d.com,2011:
--- !u!1 &2252394211547460123
GameObject:
  m_ObjectHideFlags: 0
  m_CorrespondingSourceObject: {fileID: 0}
  m_PrefabInstance: {fileID: 0}
  m_PrefabAsset: {fileID: 0}
  serializedVersion: 6
  m_Component:
  - component: {fileID: 2252394211547460122}
  - component: {fileID: 2252394211547460120}
  - component: {fileID: 2252394211547460121}
  m_Layer: 0
  m_Name: PoisonStatusAnimation
  m_TagString: Untagged
  m_Icon: {fileID: 0}
  m_NavMeshLayer: 0
  m_StaticEditorFlags: 0
  m_IsActive: 1
--- !u!4 &2252394211547460122
Transform:
  m_ObjectHideFlags: 0
  m_CorrespondingSourceObject: {fileID: 0}
  m_PrefabInstance: {fileID: 0}
  m_PrefabAsset: {fileID: 0}
  m_GameObject: {fileID: 2252394211547460123}
  m_LocalRotation: {x: 0, y: 0, z: 0, w: 1}
  m_LocalPosition: {x: 0, y: 0, z: 0}
  m_LocalScale: {x: 1, y: 1, z: 1}
  m_Children: []
  m_Father: {fileID: 0}
  m_RootOrder: 0
  m_LocalEulerAnglesHint: {x: 0, y: 0, z: 0}
--- !u!114 &2252394211547460120
MonoBehaviour:
  m_ObjectHideFlags: 0
  m_CorrespondingSourceObject: {fileID: 0}
  m_PrefabInstance: {fileID: 0}
  m_PrefabAsset: {fileID: 0}
  m_GameObject: {fileID: 2252394211547460123}
  m_Enabled: 1
  m_EditorHideFlags: 0
  m_Script: {fileID: 11500000, guid: 4345e36fa7cbde246b0d136c27a57533, type: 3}
  m_Name: 
  m_EditorClassIdentifier: 
  Targets:
  - {fileID: 0}
--- !u!114 &2252394211547460121
MonoBehaviour:
  m_ObjectHideFlags: 0
  m_CorrespondingSourceObject: {fileID: 0}
  m_PrefabInstance: {fileID: 0}
  m_PrefabAsset: {fileID: 0}
  m_GameObject: {fileID: 2252394211547460123}
  m_Enabled: 1
  m_EditorHideFlags: 0
  m_Script: {fileID: 11500000, guid: 7aa1ede942dd2e14181cd5884fb3fe1f, type: 3}
  m_Name: 
  m_EditorClassIdentifier: 
  PoisonColor: {r: 0.6, g: 0.101960786, b: 0.94509804, a: 1}
  PoisonBubbles: {fileID: 8521198910603107602, guid: e42f5041a0896074db926a7e72bce5e6,
    type: 3}
  PoisonMessage: '{0} {1} was poisoned.'
