%YAML 1.1
%TAG !u! tag:unity3d.com,2011:
--- !u!1 &1516171791166604197
GameObject:
  m_ObjectHideFlags: 0
  m_CorrespondingSourceObject: {fileID: 0}
  m_PrefabInstance: {fileID: 0}
  m_PrefabAsset: {fileID: 0}
  serializedVersion: 6
  m_Component:
  - component: {fileID: 7611445530918079084}
  - component: {fileID: 6368446525008158173}
  m_Layer: 0
  m_Name: SwitchInAnimation
  m_TagString: Untagged
  m_Icon: {fileID: 0}
  m_NavMeshLayer: 0
  m_StaticEditorFlags: 0
  m_IsActive: 1
--- !u!4 &7611445530918079084
Transform:
  m_ObjectHideFlags: 0
  m_CorrespondingSourceObject: {fileID: 0}
  m_PrefabInstance: {fileID: 0}
  m_PrefabAsset: {fileID: 0}
  m_GameObject: {fileID: 1516171791166604197}
  m_LocalRotation: {x: 0, y: 0, z: 0, w: 1}
  m_LocalPosition: {x: 0, y: 0, z: 0}
  m_LocalScale: {x: 1, y: 1, z: 1}
  m_Children: []
  m_Father: {fileID: 0}
  m_RootOrder: 0
  m_LocalEulerAnglesHint: {x: 0, y: 0, z: 0}
--- !u!114 &6368446525008158173
MonoBehaviour:
  m_ObjectHideFlags: 0
  m_CorrespondingSourceObject: {fileID: 0}
  m_PrefabInstance: {fileID: 0}
  m_PrefabAsset: {fileID: 0}
  m_GameObject: {fileID: 1516171791166604197}
  m_Enabled: 1
  m_EditorHideFlags: 0
  m_Script: {fileID: 11500000, guid: b290ed8bf69aadf4c88ba8cfa0ebcc37, type: 3}
  m_Name: 
  m_EditorClassIdentifier: 
  Position: {x: 0, y: 0, z: 0}
  Rotation: {x: 0, y: 0, z: 0, w: 0}
  BurstingOutParticles: {fileID: 2163956137317709267, guid: 2e403e949c9bf584cac712adad07d961,
    type: 3}
  TotalDuration: 3
  Message: '{0}! Go!'
