%YAML 1.1
%TAG !u! tag:unity3d.com,2011:
--- !u!114 &11400000
MonoBehaviour:
  m_ObjectHideFlags: 0
  m_CorrespondingSourceObject: {fileID: 0}
  m_PrefabInstance: {fileID: 0}
  m_PrefabAsset: {fileID: 0}
  m_GameObject: {fileID: 0}
  m_Enabled: 1
  m_EditorHideFlags: 0
  m_Script: {fileID: 11500000, guid: 43832bc4f17ba104b9f99d33c7442a8f, type: 3}
  m_Name: Garbogiest
  m_EditorClassIdentifier: 
  DisplayName: Garbogiest
  Attributes:
  - {fileID: 11400000, guid: dd56109c4d307904aa453d4d85fbf8ea, type: 2}
  - {fileID: 11400000, guid: b707448854badf14dbd7134ad8844134, type: 2}
  LevelCurve: Fluctuating
  VictoryYield: 145
  Statistics:
  - StatisticName: BaseHP
    Value: 69
  - StatisticName: BaseMP
    Value: 82
  - StatisticName: BaseATK
    Value: 84
  - StatisticName: BaseDEF
    Value: 91
  - StatisticName: BaseMAT
    Value: 93
  - StatisticName: BaseMDF
    Value: 78
  - StatisticName: BaseSPD
    Value: 83
  GainedAbilites:
  - Ability: {fileID: 0}
    GainMethod: 
    Info: 
  - Ability: {fileID: 3999974800937701981, guid: baad2f7a68c402241a6bae96604f90dc,
      type: 3}
    GainMethod: level
    Info: 1
  - Ability: {fileID: 0}
    GainMethod: 
    Info: 
  - Ability: {fileID: 0}
    GainMethod: 
    Info: 
  AvailableTraits: []
  Evolutions: []
