%YAML 1.1
%TAG !u! tag:unity3d.com,2011:
--- !u!114 &11400000
MonoBehaviour:
  m_ObjectHideFlags: 0
  m_CorrespondingSourceObject: {fileID: 0}
  m_PrefabInstance: {fileID: 0}
  m_PrefabAsset: {fileID: 0}
  m_GameObject: {fileID: 0}
  m_Enabled: 1
  m_EditorHideFlags: 0
  m_Script: {fileID: 11500000, guid: 43832bc4f17ba104b9f99d33c7442a8f, type: 3}
  m_Name: Monster
  m_EditorClassIdentifier: 
  DisplayName: 
  Attributes: []
  LevelCurve: 
  VictoryYield: 0
  Statistics: []
  GainedAbilites: []
  AvailableTraits:
  - Trait: {fileID: 1254237761022096298, guid: afe90ba4fd476214cbeff5a3801b71d2, type: 3}
    Chance: 32
  - Trait: {fileID: 0}
    Chance: 32
  Evolutions: []
