%YAML 1.1
%TAG !u! tag:unity3d.com,2011:
--- !u!114 &11400000
MonoBehaviour:
  m_ObjectHideFlags: 0
  m_CorrespondingSourceObject: {fileID: 0}
  m_PrefabInstance: {fileID: 0}
  m_PrefabAsset: {fileID: 0}
  m_GameObject: {fileID: 0}
  m_Enabled: 1
  m_EditorHideFlags: 0
  m_Script: {fileID: 11500000, guid: 596e2124fa948ef418c3ff5074560224, type: 3}
  m_Name: Wind
  m_EditorClassIdentifier: 
  DisplayName: Wind
  Color: {r: 0, g: 0.5943396, b: 0.41833928, a: 0}
  AttributeEffectivenesses:
  - AttributeName: Earth
    IsStronglyEffective: 1
    IsNotVeryEffective: 0
    WillNotAffect: 0
  - AttributeName: Insect
    IsStronglyEffective: 1
    IsNotVeryEffective: 0
    WillNotAffect: 0
  - AttributeName: Nature
    IsStronglyEffective: 1
    IsNotVeryEffective: 0
    WillNotAffect: 0
  - AttributeName: Metal
    IsStronglyEffective: 0
    IsNotVeryEffective: 1
    WillNotAffect: 0
